Evomics Workshop part 2
…
otu_get(counts = TRUE)       [ 39 taxa and 306 samples ]

psExtra info:
tax_agg = "species" tax_trans = "compositional&log2" 

taxatree_stats dataframe:
89 taxa at 6 ranks: phylum, class, order, family, genus, species 
4 terms: C_section, Female, Birth_weight_Z, Reads_Z

shaoStats %>% taxatree_stats_get()

# A tibble: 356 × 8
   term           taxon      rank  formula estimate std.error statistic  p.value
   <fct>          <chr>      <fct> <chr>      <dbl>     <dbl>     <dbl>    <dbl>
 1 C_section      p: Proteo… phyl… `p: Pr…  -3.44       1.31    -2.62   9.23e- 3
 2 Female         p: Proteo… phyl… `p: Pr…   0.595      1.29     0.460  6.46e- 1
 3 Birth_weight_Z p: Proteo… phyl… `p: Pr…   0.0179     0.640    0.0279 9.78e- 1
 4 Reads_Z        p: Proteo… phyl… `p: Pr…  -1.22       0.659   -1.86   6.44e- 2
 5 C_section      p: Actino… phyl… `p: Ac… -16.9        2.37    -7.12   8.98e-12
 6 Female         p: Actino… phyl… `p: Ac…  -2.80       2.33    -1.20   2.30e- 1
 7 Birth_weight_Z p: Actino… phyl… `p: Ac…   1.65       1.15     1.43   1.55e- 1
 8 Reads_Z        p: Actino… phyl… `p: Ac…  -2.86       1.19    -2.41   1.67e- 2
 9 C_section      p: Firmic… phyl… `p: Fi…  15.3        4.21     3.62   3.43e- 4
10 Female         p: Firmic… phyl… `p: Fi…   0.741      4.15     0.179  8.58e- 1
# ℹ 346 more rows
Adjusting p values

We have performed a lot of statistical tests here!

It is likely that we could find some significant p-values by chance alone.

We should correct for multiple testing / control the false discovery rate or family-wise error rate.

Instead of applying these adjustment methods across all 86 taxa models at all ranks, the default behaviour is to control the family-wise error rate per taxonomic rank.

shaoStats <- shaoStats %>% taxatree_stats_p_adjust(method = "BH", grouping = "rank")
# notice the new variable
shaoStats %>% taxatree_stats_get()

# A tibble: 356 × 9
# Groups:   rank [6]
   term  taxon rank  formula estimate std.error statistic  p.value p.adj.BH.rank
   <fct> <chr> <fct> <chr>      <dbl>     <dbl>     <dbl>    <dbl>         <dbl>
 1 C_se… p: P… phyl… `p: Pr…  -3.44       1.31    -2.62   9.23e- 3      2.95e- 2
 2 Fema… p: P… phyl… `p: Pr…   0.595      1.29     0.460  6.46e- 1      7.38e- 1
 3 Birt… p: P… phyl… `p: Pr…   0.0179     0.640    0.0279 9.78e- 1      9.78e- 1
 4 Read… p: P… phyl… `p: Pr…  -1.22       0.659   -1.86   6.44e- 2      1.47e- 1
 5 C_se… p: A… phyl… `p: Ac… -16.9        2.37    -7.12   8.98e-12      7.19e-11
 6 Fema… p: A… phyl… `p: Ac…  -2.80       2.33    -1.20   2.30e- 1      3.07e- 1
 7 Birt… p: A… phyl… `p: Ac…   1.65       1.15     1.43   1.55e- 1      2.48e- 1
 8 Read… p: A… phyl… `p: Ac…  -2.86       1.19    -2.41   1.67e- 2      4.46e- 2
 9 C_se… p: F… phyl… `p: Fi…  15.3        4.21     3.62   3.43e- 4      1.83e- 3
10 Fema… p: F… phyl… `p: Fi…   0.741      4.15     0.179  8.58e- 1      9.16e- 1
# ℹ 346 more rows
…
